{
    "env": {
        "userReset": "UserTestReset2",
        "passReset": "hdkymigu",
        "userBloq": "0wwe9n37z1",
        "passBloq": "whv7sv6s",
        "userFirtLogin": "00k28216oz",
        "passFirstLogin": "w3nc78f7",
        "userVer": "jvillegas",
        "passVer": "Admin1",
        "userSinData": "VerUser",
        "userData": "jvillegas2",
        "userAdmin": "jburgos",
        "passAdmin": "Admin1",
        "dniConsultarValido":"42728713",
        "dniValidadorValido":"42728713",
        "dniNoRegistradoLocalmente":"71642522",
        "email": "jburgos@novatronic.com",
        "url": "http://localhost:4200/",
        "sixbioVisualizar": true,
        "comentario": "La variable sixbioVisualizar  hace referencia a la propiedad sixbioweb.sixbio.visualizar en el archivo sixbioweb.config.properties referente a la habilitacion de campos",
        "sixbiowebdniValidador": false,
        "comentarios_ixbiowebdniValidador": "La variable sixbiowebdniValidador  hace referencia a la propiedad sixbioweb.validar.dniValidador en el archivo sixbioweb.config.properties referente a la habilitacion de campos"

    },
    "defaultCommandTimeout": 10000
}
