{
    "env": {
        "userReset": "UserReset",
        "passReset": "ryv7u41m",
        "userBloq": "UserBloq",
        "passBloq": "t63I0nzh",
        "userFirtLogin": "00k28216oz",
        "passFirstLogin": "w3nc78f7",
        "fechaDesde":{
            "año":"2021",
            "nombreMes":"enero",
            "numDia":"5"
        },
        "fechaHasta":{
            "año":"2021",
            "nombreMes":"enero",
            "numDia":"28"
        },
        "userVer": "jvillegas",
        "passVer": "Admin1",
        "userSinData": "UserBloq",
        "userData": "jvillegas2",
        "userAdmin": "jburgos",
        "passAdmin": "Admin1",
        "dniConsultarValido":"42728713",
        "dniValidadorValido":"42728713",
        "dniNoRegistradoLocalmente":"71642522",
        "email": "jburgos@novatronic.com",
        "url": "http://localhost:4200/",
        "sixbioVisualizar": true,
        "comentario": "La variable sixbioVisualizar  hace referencia a la propiedad sixbioweb.sixbio.visualizar en el archivo sixbioweb.config.properties referente a la habilitacion de campos",
        "sixbiowebdniValidador": false,
        "comentarios_sixbiowebdniValidador": "La variable sixbiowebdniValidador  hace referencia a la propiedad sixbioweb.validar.dniValidador en el archivo sixbioweb.config.properties referente a la habilitacion de campos"

    },
    "defaultCommandTimeout": 10000
}
